************************************************************************************************************************
***             WIDEN YOUR WINDOW TO 120 CHARACTERS.  Use 'enscript -r -fCourier9' to print this document            ***
************************************************************************************************************************

---------------------------------------------- PETSc Performance Summary: ----------------------------------------------

./petsc/src/mat/examples/tests/suitesparse/exss_gpu_opt on a arch-sell-cuda-opt named gpu00.ftm.alcf.anl.gov with 1 processor, by hongzh22 Fri Feb  7 11:49:21 2020
Using Petsc Development GIT revision: v3.12.3-522-g55db3a3  GIT Date: 2020-02-07 10:34:24 -0600

                         Max       Max/Min     Avg       Total 
Time (sec):           6.979e-01     1.000   6.979e-01
Objects:              6.000e+00     1.000   6.000e+00
Flop:                 3.242e+07     1.000   3.242e+07  3.242e+07
Flop/sec:             4.645e+07     1.000   4.645e+07  4.645e+07
MPI Messages:         0.000e+00     0.000   0.000e+00  0.000e+00
MPI Message Lengths:  0.000e+00     0.000   0.000e+00  0.000e+00
MPI Reductions:       0.000e+00     0.000

Flop counting convention: 1 flop = 1 real number operation of type (multiply/divide/add/subtract)
                            e.g., VecAXPY() for real vectors of length N --> 2N flop
                            and VecAXPY() for complex vectors of length N --> 8N flop

Summary of Stages:   ----- Time ------  ----- Flop ------  --- Messages ---  -- Message Lengths --  -- Reductions --
                        Avg     %Total     Avg     %Total    Count   %Total     Avg         %Total    Count   %Total 
 0:      Main Stage: 6.9786e-01 100.0%  3.2419e+07 100.0%  0.000e+00   0.0%  0.000e+00        0.0%  0.000e+00   0.0% 

------------------------------------------------------------------------------------------------------------------------
See the 'Profiling' chapter of the users' manual for details on interpreting output.
Phase summary info:
   Count: number of times phase was executed
   Time and Flop: Max - maximum over all processors
                  Ratio - ratio of maximum to minimum over all processors
   Mess: number of messages sent
   AvgLen: average message length (bytes)
   Reduct: number of global reductions
   Global: entire computation
   Stage: stages of a computation. Set stages with PetscLogStagePush() and PetscLogStagePop().
      %T - percent time in this phase         %F - percent flop in this phase
      %M - percent messages in this phase     %L - percent message lengths in this phase
      %R - percent reductions in this phase
   Total Mflop/s: 10e-6 * (sum of flop over all processors)/(max time over all processors)
   GPU Mflop/s: 10e-6 * (sum of flop on GPU over all processors)/(max GPU time over all processors)
   CpuToGpu Count: total number of CPU to GPU copies per processor
   CpuToGpu Size (Mbytes): 10e-6 * (total size of CPU to GPU copies per processor)
   GpuToCpu Count: total number of GPU to CPU copies per processor
   GpuToCpu Size (Mbytes): 10e-6 * (total size of GPU to CPU copies per processor)
   GPU %F: percent flops on GPU in this event
------------------------------------------------------------------------------------------------------------------------
Event                Count      Time (sec)     Flop                              --- Global ---  --- Stage ----  Total   GPU    - CpuToGpu -   - GpuToCpu - GPU
                   Max Ratio  Max     Ratio   Max  Ratio  Mess   AvgLen  Reduct  %T %F %M %L %R  %T %F %M %L %R Mflop/s Mflop/s Count   Size   Count   Size  %F
---------------------------------------------------------------------------------------------------------------------------------------------------------------

--- Event Stage 0: Main Stage

MatMult                1 1.0 4.1091e-02 1.0 3.23e+07 1.0 0.0e+00 0.0e+00 0.0e+00  6100  0  0  0   6100  0  0  0   787   84890      1 1.95e+02    0 0.00e+00 100
MatConvert             2 1.0 1.3712e-01 1.0 0.00e+00 0.0 0.0e+00 0.0e+00 0.0e+00 20  0  0  0  0  20  0  0  0  0     0       0      0 0.00e+00    0 0.00e+00  0
MatAssemblyBegin       2 1.0 9.5367e-07 1.0 0.00e+00 0.0 0.0e+00 0.0e+00 0.0e+00  0  0  0  0  0   0  0  0  0  0     0       0      0 0.00e+00    0 0.00e+00  0
MatAssemblyEnd         2 1.0 2.6993e-02 1.0 0.00e+00 0.0 0.0e+00 0.0e+00 0.0e+00  4  0  0  0  0   4  0  0  0  0     0       0      0 0.00e+00    0 0.00e+00  0
MatLoad                1 1.0 4.5306e-01 1.0 0.00e+00 0.0 0.0e+00 0.0e+00 0.0e+00 65  0  0  0  0  65  0  0  0  0     0       0      0 0.00e+00    0 0.00e+00  0
MatCUDACopyTo          1 1.0 4.0704e-02 1.0 0.00e+00 0.0 0.0e+00 0.0e+00 0.0e+00  6  0  0  0  0   6  0  0  0  0     0       0      1 1.95e+02    0 0.00e+00  0
VecNorm                1 1.0 1.2493e-04 1.0 7.62e+04 1.0 0.0e+00 0.0e+00 0.0e+00  0  0  0  0  0   0  0  0  0  0   610     636      0 0.00e+00    0 0.00e+00 100
VecSet                 3 1.0 1.1182e-04 1.0 0.00e+00 0.0 0.0e+00 0.0e+00 0.0e+00  0  0  0  0  0   0  0  0  0  0     0       0      0 0.00e+00    0 0.00e+00  0
VecCUDACopyFrom        2 1.0 1.6427e-04 1.0 0.00e+00 0.0 0.0e+00 0.0e+00 0.0e+00  0  0  0  0  0   0  0  0  0  0     0       0      0 0.00e+00    2 6.10e-01  0
---------------------------------------------------------------------------------------------------------------------------------------------------------------

Memory usage is given in bytes:

Object Type          Creations   Destructions     Memory  Descendants' Mem.
Reports information only for process 0.

--- Event Stage 0: Main Stage

              Viewer     2              1          840     0.
              Matrix     2              2    389693000     0.
              Vector     2              2       613072     0.
========================================================================================================================
Average time to get PetscTime(): 0.
#PETSc Option Table entries:
-A gpu_converted_clean/TSOPF_TSOPF_RS_b2383_38120x38120.dat
-log_view :jlse_logs/TSOPF_TSOPF_RS_b2383_38120x38120_seqsellcuda.log
-test_sell
-vec_type cuda
#End of PETSc Option Table entries
Compiled without FORTRAN kernels
Compiled with full precision matrices (default)
sizeof(short) 2 sizeof(int) 4 sizeof(long) 8 sizeof(void*) 8 sizeof(PetscScalar) 8 sizeof(PetscInt) 4
Configure options: --COPTFLAGS=-O3 --CUDAOPTFLAGS=--verbose --CXXOPTFLAGS=-O3 --FOPTFLAGS=-O3 --download-viennacl --known-level1-dcache-assoc=8 --known-level1-dcache-linesize=64 --known-level1-dcache-size=32768 --known-memcmp-ok=1 --known-mklspblas-supports-zero-based=0 --known-mpi-c-double-complex=1 --known-mpi-int64_t=1 --known-mpi-long-double=1 --with-batch=1 --with-blaslapack-dir=/soft/compilers/intel/compilers_and_libraries/linux/mkl/lib/intel64 --with-cc=mpiicc --with-clanguage=c --with-cuda=1 --with-cxx=mpiicpc --with-debugging=no --with-fc=0 --with-memalign=64 --with-precision=double CUDAFLAGS="-ccbin mpiicpc" PETSC_ARCH=arch-sell-cuda-opt PETSC_DIR=/gpfs/jlse-fs0/users/hongzh22/Projects/petsc
-----------------------------------------
Libraries compiled on 2020-02-07 16:35:50 on gpu01.ftm.alcf.anl.gov 
Machine characteristics: Linux-3.10.0-862.14.4.el7.x86_64-x86_64-with-redhat-7.5-Maipo
Using PETSc directory: /gpfs/jlse-fs0/users/hongzh22/Projects/petsc
Using PETSc arch: arch-sell-cuda-opt
-----------------------------------------

Using C compiler: mpiicc  -fPIC -O3  
-----------------------------------------

Using include paths: -I/gpfs/jlse-fs0/users/hongzh22/Projects/petsc/include -I/gpfs/jlse-fs0/users/hongzh22/Projects/petsc/arch-sell-cuda-opt/include -I/soft/compilers/cuda/cuda-10.0.130/include
-----------------------------------------

Using C linker: mpiicc
Using libraries: -Wl,-rpath,/gpfs/jlse-fs0/users/hongzh22/Projects/petsc/arch-sell-cuda-opt/lib -L/gpfs/jlse-fs0/users/hongzh22/Projects/petsc/arch-sell-cuda-opt/lib -lpetsc -Wl,-rpath,/soft/compilers/intel/compilers_and_libraries/linux/mkl/lib/intel64 -L/soft/compilers/intel/compilers_and_libraries/linux/mkl/lib/intel64 -Wl,-rpath,/soft/compilers/cuda/cuda-10.0.130/lib64 -L/soft/compilers/cuda/cuda-10.0.130/lib64 -lmkl_intel_lp64 -lmkl_core -lmkl_sequential -lpthread -lX11 -lcufft -lcublas -lcudart -lcusparse -lcusolver -lquadmath -ldl
-----------------------------------------

